…
const <- herschel%>%
  group_by(Constellation)%>%
  summarise(n = n())%>%
  mutate(proportion = n/sum(n))%>%
  arrange(desc(n))
const

## # A tibble: 49 x 3
##    Constellation      n proportion
##    <chr>          <int>      <dbl>
##  1 Virgo             50     0.125 
##  2 Ursa Major        46     0.115 
##  3 Como Berenices    24     0.06  
##  4 Leo               23     0.0575
##  5 Sagittarius       18     0.045 
##  6 Canes Venatici    17     0.0425
##  7 Cassiopeia        16     0.04  
##  8 Ophiuchus         15     0.0375
##  9 Monoceros         14     0.035 
## 10 Cetus             13     0.0325
## # ... with 39 more rows
…
