Chris's Data Blog | Eno Double Nest Hammock Review Analysis (Amazon User Reviews)
…
DT::datatable(bigram_counts, colnames = c("Word_1", "Word_2", "Frequency"), filter = "top")

A look at the Not Words that skew the Sentiment Analysis inversely.

AFINN <- get_sentiments("afinn")
not_words <- bigrams_sep%>%
  filter(word1 == "not")%>%
  inner_join(AFINN, by = c(word2 = "word"))%>%
  count(word2, score, sort = T)%>%
  ungroup()

not_words

## # A tibble: 34 x 3
##    word2        score     n
##    <chr>        <int> <int>
##  1 recommend        2     9
##  2 regret          -2     7
##  3 like             2     5
##  4 want             1     4
##  5 disappointed    -2     3
##  6 bad             -3     2
##  7 convinced        1     2
##  8 good             3     2
##  9 happy            3     2
## 10 hesitate        -2     2
## # ... with 24 more rows
…
